{
  "tabs": [
    {
      "name": "meat",
      "achievements": false
    },
    {
      "name": "larva",
      "achievements": true
    },
    {
      "name": "territory",
      "achievements": false
    },
    {
      "name": "energy",
      "achievements": false
    },
    {
      "name": "mutagen",
      "achievements": false,
      "secondaryUnit": "premutagen"
    }
  ],
  "units": [
    {
      "name": "hatchery",
      "slug": "hatchery",
      "tab": "larva",
      "init": 1,
      "prod.unittype": "larva",
      "prod.expr": "(base: 1) * (bonus: (expansion: (expansion_base: 1.1) ^ expansion) * (mutation: (log(10 + mutanthatchery, 10) - 1) + 1) * (achievementbonus: (1 + (achievementbonus_base: 0.01) * achievementpoints / 10) ^ achievementbonus))",
      "visible": true,
      "watchable": true
    },
    {
      "name": "meat",
      "slug": "meat",
      "tab": "meat",
      "init": 35,
      "tier": 0,
      "visible": true
    },
    {
      "name": "larva",
      "slug": "larva",
      "tab": "larva",
      "init": 10,
      "visible": true
    },
    {
      "name": "cocoon",
      "slug": "cocoon",
      "tab": "larva",
      "visible": "cocooning >= 1"
    },
    {
      "name": "territory",
      "slug": "territory",
      "tab": "territory",
      "visible": "territory > 0 || queen >= 5"
    },
    {
      "name": "energy",
      "slug": "energy",
      "tab": "energy",
      "maxCount": "(base: 10000 * nexus) * (bonus: (nightbug: 1 + (nightbug_max: 5) * (1 - 1/(1 + 0.001 * nightbug))) * (mutation: 1 + (mutation_max: 1) * (1 - 1/(1 + 0.0005 * mutantnexus)))) + mtxEnergy",
      "visible": "energy > 0 || nexus > 0 || meat >= 333333333333"
    },
    {
      "name": "mtxEnergy",
      "slug": "energy and max energy",
      "tab": "energy",
      "ascendPreserve": "TRUE",
      "visible": false
    },
    {
      "name": "nexus",
      "slug": "nexus",
      "tab": "energy",
      "prod.unittype": "energy",
      "prod.expr": "(base: 0.1) * (bonus: (moth: 1 + (moth_max: 1) * (1 - 1/(1 + 0.001 * moth))) * (mutation: 1 + (mutation_max: 1) * (1 - 1/(1 + 0.0005 * mutantnexus))))",
      "minCount": "nexus1 + nexus2 + nexus3 + nexus4 + nexus5",
      "visible": "energy > 0 || nexus > 0 || meat >= 333333333333"
    },
    {
      "name": "crystal",
      "slug": "crystal",
      "tab": "energy",
      "ascendPreserve": "TRUE",
      "visible": true
    },
    {
      "name": "mutagen",
      "slug": "mutagen",
      "tab": "mutagen",
      "ascendPreserve": "TRUE",
      "prod.unittype": "larva",
      "prod.expr": 0.1,
      "visible": "mutagen > 0 || premutagen > 0 || ascension > 0"
    },
    {
      "name": "premutagen",
      "slug": "mutagen (inactive)",
      "tab": "mutagen",
      "ascendPreserve": "TRUE",
      "visible": "mutagen > 0 || premutagen > 0 || ascension > 0"
    },
    {
      "name": "ascension",
      "slug": "ascension",
      "tab": "mutagen",
      "ascendPreserve": "TRUE",
      "visible": "mutagen > 0 || premutagen > 0 || ascension > 0"
    },
    {
      "name": "drone",
      "slug": "drone",
      "tab": "meat",
      "tier": 1,
      "prod.unittype": "meat",
      "prod.expr": "(base: 1) * (bonus: (upgrades: 2 ^ droneprod) * (mutation: (log(10 + 0.1 * mutantmeat, 10) - 1) * 0.48 + 1))",
      "twins": "2 ^ dronetwin",
      "visible": true
    },
    {
      "name": "queen",
      "slug": "queen",
      "tab": "meat",
      "tier": 2,
      "prod.unittype": "drone",
      "prod.expr": "(base: 2) * (bonus: (upgrades: 2 ^ queenprod) * (mutation: (log(10 + 0.1 * mutantmeat, 10) - 1) * 0.408 + 1))",
      "twins": "2 ^ queentwin",
      "visible": "queen > 0 || ascension > 0 || drone >= 10"
    },
    {
      "name": "nest",
      "slug": "nest",
      "tab": "meat",
      "tier": 3,
      "prod.unittype": "queen",
      "prod.expr": "(base: 3) * (bonus: (upgrades: 2 ^ nestprod) * (mutation: (log(10 + 0.1 * mutantmeat, 10) - 1) * 0.3468 + 1))",
      "twins": "2 ^ nesttwin",
      "warnfirst.unittype": "queen",
      "warnfirst.val": 2000,
      "visible": "nest > 0 || ascension > 0 || (queen >= 5 && territory > 0)"
    },
    {
      "name": "greaterqueen",
      "slug": "greater-queen",
      "tab": "meat",
      "tier": 4,
      "prod.unittype": "nest",
      "prod.expr": "(base: 4) * (bonus: (upgrades: 2 ^ greaterqueenprod) * (mutation: (log(10 + 0.1 * mutantmeat, 10) - 1) * 0.29478 + 1))",
      "twins": "2 ^ greaterqueentwin",
      "warnfirst.unittype": "nest",
      "warnfirst.val": 40000,
      "visible": "greaterqueen > 0 || nest > 0"
    },
    {
      "name": "hive",
      "slug": "hive",
      "tab": "meat",
      "tier": 5,
      "prod.unittype": "greaterqueen",
      "prod.expr": "(base: 5) * (bonus: (upgrades: 2 ^ hiveprod) * (mutation: (log(10 + 0.1 * mutantmeat, 10) - 1) * 0.250563 + 1))",
      "twins": "2 ^ hivetwin",
      "warnfirst.unittype": "greaterqueen",
      "warnfirst.val": 800000,
      "visible": "hive > 0 || greaterqueen > 0"
    },
    {
      "name": "hivequeen",
      "slug": "hive-queen",
      "tab": "meat",
      "tier": 6,
      "prod.unittype": "hive",
      "prod.expr": "(base: 6) * (bonus: (upgrades: 2 ^ hivequeenprod) * (mutation: (log(10 + 0.1 * mutantmeat, 10) - 1) * 0.21297855 + 1))",
      "twins": "2 ^ hivequeentwin",
      "warnfirst.unittype": "hive",
      "warnfirst.val": 4000000,
      "visible": "hivequeen > 0 || hive > 0"
    },
    {
      "name": "empress",
      "slug": "hive-empress",
      "tab": "meat",
      "tier": 7,
      "prod.unittype": "hivequeen",
      "prod.expr": "(base: 7) * (bonus: (upgrades: 2 ^ empressprod) * (mutation: (log(10 + 0.1 * mutantmeat, 10) - 1) * 0.1810317675 + 1))",
      "twins": "2 ^ empresstwin",
      "visible": "empress > 0 || hivequeen > 0"
    },
    {
      "name": "prophet",
      "slug": "neuroprophet",
      "tab": "meat",
      "tier": 8,
      "prod.unittype": "empress",
      "prod.expr": "(base: 8) * (bonus: (upgrades: 2 ^ prophetprod) * (mutation: (log(10 + 0.1 * mutantmeat, 10) - 1) * 0.153877002375 + 1))",
      "twins": "2 ^ prophettwin",
      "visible": "prophet > 0 || empress > 0"
    },
    {
      "name": "goddess",
      "slug": "hive-neuron",
      "tab": "meat",
      "tier": 9,
      "prod.unittype": "prophet",
      "prod.expr": "(base: 9) * (bonus: (upgrades: 2 ^ goddessprod) * (mutation: (log(10 + 0.1 * mutantmeat, 10) - 1) * 0.13079545201875 + 1))",
      "twins": "2 ^ goddesstwin",
      "visible": "goddess > 0 || prophet > 0"
    },
    {
      "name": "pantheon",
      "slug": "neural-cluster",
      "tab": "meat",
      "tier": 10,
      "prod.unittype": "goddess",
      "prod.expr": "(base: 10) * (bonus: (upgrades: 2 ^ pantheonprod) * (mutation: (log(10 + 0.1 * mutantmeat, 10) - 1) * 0.111176134215937 + 1))",
      "twins": "2 ^ pantheontwin",
      "visible": "pantheon > 0 || goddess > 0"
    },
    {
      "name": "pantheon2",
      "slug": "hive-network",
      "tab": "meat",
      "tier": 11,
      "prod.unittype": "pantheon",
      "prod.expr": "(base: 11) * (bonus: (upgrades: 2 ^ pantheon2prod) * (mutation: (log(10 + 0.1 * mutantmeat, 10) - 1) * 0.0944997140835468 + 1))",
      "twins": "2 ^ pantheon2twin",
      "visible": "pantheon2 > 0 || pantheon > 0"
    },
    {
      "name": "pantheon3",
      "slug": "lesser-hive-mind",
      "tab": "meat",
      "tier": 12,
      "prod.unittype": "pantheon2",
      "prod.expr": "(base: 12) * (bonus: (upgrades: 2 ^ pantheon3prod) * (mutation: (log(10 + 0.1 * mutantmeat, 10) - 1) * 0.0803247569710148 + 1))",
      "twins": "2 ^ pantheon3twin",
      "visible": "pantheon3 > 0 || pantheon2 > 0"
    },
    {
      "name": "pantheon4",
      "slug": "hive-mind",
      "tab": "meat",
      "tier": 13,
      "prod.unittype": "pantheon3",
      "prod.expr": "(base: 13) * (bonus: (upgrades: 2 ^ pantheon4prod) * (mutation: (log(10 + 0.1 * mutantmeat, 10) - 1) * 0.0682760434253626 + 1))",
      "twins": "2 ^ pantheon4twin",
      "visible": "pantheon4 > 0 || pantheon3 > 0"
    },
    {
      "name": "pantheon5",
      "slug": "arch-mind",
      "tab": "meat",
      "tier": 14,
      "prod.unittype": "pantheon4",
      "prod.expr": "(base: 14) * (bonus: (upgrades: 2 ^ pantheon5prod) * (mutation: (log(10 + 0.1 * mutantmeat, 10) - 1) * 0.0580346369115582 + 1))",
      "twins": "2 ^ pantheon5twin",
      "visible": "pantheon5 > 0 || pantheon4 > 0"
    },
    {
      "name": "overmind",
      "slug": "overmind",
      "tab": "meat",
      "tier": 15,
      "prod.unittype": "pantheon5",
      "prod.expr": "(base: 15) * (bonus: (upgrades: 2 ^ overmindprod) * (mutation: (log(10 + 0.1 * mutantmeat, 10) - 1) * 0.0493294413748245 + 1))",
      "twins": "2 ^ overmindtwin",
      "visible": "overmind > 0 || pantheon5 > 0"
    },
    {
      "name": "overmind2",
      "slug": "overmind-II",
      "tab": "meat",
      "tier": 16,
      "prod.unittype": "overmind",
      "prod.expr": "(base: 16) * (bonus: (upgrades: 2 ^ overmind2prod) * (mutation: (log(10 + 0.1 * mutantmeat, 10) - 1) * 0.0419300251686008 + 1))",
      "twins": "2 ^ overmind2twin",
      "visible": "overmind2 > 0 || overmind > 0"
    },
    {
      "name": "overmind3",
      "slug": "overmind-III",
      "tab": "meat",
      "tier": 17,
      "prod.unittype": "overmind2",
      "prod.expr": "(base: 17) * (bonus: (upgrades: 2 ^ overmind3prod) * (mutation: (log(10 + 0.1 * mutantmeat, 10) - 1) * 0.0356405213933107 + 1))",
      "twins": "2 ^ overmind3twin",
      "visible": "overmind3 > 0 || overmind2 > 0"
    },
    {
      "name": "overmind4",
      "slug": "overmind-IV",
      "tab": "meat",
      "tier": 18,
      "prod.unittype": "overmind3",
      "prod.expr": "(base: 18) * (bonus: (upgrades: 2 ^ overmind4prod) * (mutation: (log(10 + 0.1 * mutantmeat, 10) - 1) * 0.0302944431843141 + 1))",
      "twins": "2 ^ overmind4twin",
      "visible": "overmind4 > 0 || overmind3 > 0"
    },
    {
      "name": "overmind5",
      "slug": "overmind-V",
      "tab": "meat",
      "tier": 19,
      "prod.unittype": "overmind4",
      "prod.expr": "(base: 19) * (bonus: (upgrades: 2 ^ overmind5prod) * (mutation: (log(10 + 0.1 * mutantmeat, 10) - 1) * 0.025750276706667 + 1))",
      "twins": "2 ^ overmind5twin",
      "visible": "overmind5 > 0 || overmind4 > 0"
    },
    {
      "name": "overmind6",
      "slug": "overmind-VI",
      "tab": "meat",
      "tier": 20,
      "prod.unittype": "overmind5",
      "prod.expr": "(base: 20) * (bonus: (upgrades: 2 ^ overmind6prod) * (mutation: (log(10 + 0.1 * mutantmeat, 10) - 1) * 0.0218877352006669 + 1))",
      "twins": "2 ^ overmind6twin",
      "visible": "overmind6 > 0 || overmind5 > 0"
    },
    {
      "name": "swarmling",
      "slug": "swarmling",
      "tab": "territory",
      "tier": 1,
      "prod.unittype": "territory",
      "prod.expr": "0.07 * (bonus: (1.5322783012207E+018 ^ swarmlingempower) * (mutation: 1 + 0.001 * mutantarmy ^ 0.2))",
      "twins": "2 ^ swarmlingtwin",
      "visible": "swarmling > 0 || (queen >= 5 && meat >= 225)"
    },
    {
      "name": "stinger",
      "slug": "stinger",
      "tab": "territory",
      "tier": 2,
      "prod.unittype": "territory",
      "prod.expr": "3.15 * (bonus: (1.5322783012207E+018 ^ stingerempower) * (mutation: 1 + 0.001 * mutantarmy ^ 0.2))",
      "twins": "2 ^ stingertwin",
      "visible": "stinger > 0 || (queen >= 5 && meat >= 101250)"
    },
    {
      "name": "spider",
      "slug": "arachnomorph",
      "tab": "territory",
      "tier": 3,
      "prod.unittype": "territory",
      "prod.expr": "141.75 * (bonus: (1.5322783012207E+018 ^ spiderempower) * (mutation: 1 + 0.001 * mutantarmy ^ 0.2))",
      "twins": "2 ^ spidertwin",
      "visible": "spider > 0 || (queen >= 5 && meat >= 45562500)"
    },
    {
      "name": "mosquito",
      "slug": "culicimorph",
      "tab": "territory",
      "tier": 4,
      "prod.unittype": "territory",
      "prod.expr": "6378.75 * (bonus: (1.5322783012207E+018 ^ mosquitoempower) * (mutation: 1 + 0.001 * mutantarmy ^ 0.2))",
      "twins": "2 ^ mosquitotwin",
      "visible": "mosquito > 0 || (queen >= 5 && meat >= 20503125000)"
    },
    {
      "name": "locust",
      "slug": "locust",
      "tab": "territory",
      "tier": 5,
      "prod.unittype": "territory",
      "prod.expr": "287043.75 * (bonus: (1.5322783012207E+018 ^ locustempower) * (mutation: 1 + 0.001 * mutantarmy ^ 0.2))",
      "twins": "2 ^ locusttwin",
      "visible": "locust > 0 || (queen >= 5 && meat >= 9226406250000)"
    },
    {
      "name": "roach",
      "slug": "roach",
      "tab": "territory",
      "tier": 6,
      "prod.unittype": "territory",
      "prod.expr": "12916968.75 * (bonus: (1.5322783012207E+018 ^ roachempower) * (mutation: 1 + 0.001 * mutantarmy ^ 0.2))",
      "twins": "2 ^ roachtwin",
      "visible": "roach > 0 || (queen >= 5 && meat >= 4.1518828125E+015)"
    },
    {
      "name": "giantspider",
      "slug": "giant-arachnomorph",
      "tab": "territory",
      "tier": 7,
      "prod.unittype": "territory",
      "prod.expr": "581263593.75 * (bonus: (1.5322783012207E+018 ^ giantspiderempower) * (mutation: 1 + 0.001 * mutantarmy ^ 0.2))",
      "twins": "2 ^ giantspidertwin",
      "visible": "giantspider > 0 || (queen >= 5 && meat >= 1.868347265625E+018)"
    },
    {
      "name": "centipede",
      "slug": "chilopodomorph",
      "tab": "territory",
      "tier": 8,
      "prod.unittype": "territory",
      "prod.expr": "26156861718.75 * (bonus: (1.5322783012207E+018 ^ centipedeempower) * (mutation: 1 + 0.001 * mutantarmy ^ 0.2))",
      "twins": "2 ^ centipedetwin",
      "visible": "centipede > 0 || (queen >= 5 && meat >= 8.4075626953125E+020)"
    },
    {
      "name": "wasp",
      "slug": "wasp",
      "tab": "territory",
      "tier": 9,
      "prod.unittype": "territory",
      "prod.expr": "1177058777343.75 * (bonus: (1.5322783012207E+018 ^ waspempower) * (mutation: 1 + 0.001 * mutantarmy ^ 0.2))",
      "twins": "2 ^ wasptwin",
      "visible": "wasp > 0 || (queen >= 5 && meat >= 3.78340321289063E+023)"
    },
    {
      "name": "devourer",
      "slug": "devourer",
      "tab": "territory",
      "tier": 10,
      "prod.unittype": "territory",
      "prod.expr": "52967644980468.8 * (bonus: (1.5322783012207E+018 ^ devourerempower) * (mutation: 1 + 0.001 * mutantarmy ^ 0.2))",
      "twins": "2 ^ devourertwin",
      "visible": "devourer > 0 || (queen >= 5 && meat >= 1.70253144580078E+026)"
    },
    {
      "name": "goon",
      "slug": "goon",
      "tab": "territory",
      "tier": 11,
      "prod.unittype": "territory",
      "prod.expr": "2383544024121094 * (bonus: (1.5322783012207E+018 ^ goonempower) * (mutation: 1 + 0.001 * mutantarmy ^ 0.2))",
      "twins": "2 ^ goontwin",
      "visible": "goon > 0 || (queen >= 5 && meat >= 7.66139150610352E+028)"
    },
    {
      "name": "nightbug",
      "slug": "nightbug",
      "tab": "energy",
      "visible": "nightbug > 0 || nexus >= 3"
    },
    {
      "name": "moth",
      "slug": "lepidoptera",
      "tab": "energy",
      "visible": "moth > 0 || nexus >= 4"
    },
    {
      "name": "bat",
      "slug": "bat",
      "tab": "energy",
      "visible": "bat > 0 || nexus >= 5"
    },
    {
      "name": "mutanthatchery",
      "slug": "hatchery-mutation",
      "tab": "mutagen",
      "ascendPreserve": "TRUE",
      "visible": "mutatehatchery > 0"
    },
    {
      "name": "mutantbat",
      "slug": "bat-mutation",
      "tab": "mutagen",
      "ascendPreserve": "TRUE",
      "visible": "mutatebat > 0"
    },
    {
      "name": "mutantclone",
      "slug": "clone-mutation",
      "tab": "mutagen",
      "ascendPreserve": "TRUE",
      "visible": "mutateclone > 0"
    },
    {
      "name": "mutantswarmwarp",
      "slug": "warp-mutation",
      "tab": "mutagen",
      "ascendPreserve": "TRUE",
      "visible": "mutateswarmwarp > 0"
    },
    {
      "name": "mutantrush",
      "slug": "rush-mutation",
      "tab": "mutagen",
      "ascendPreserve": "TRUE",
      "visible": "mutaterush > 0"
    },
    {
      "name": "mutanteach",
      "slug": "meta-mutation",
      "tab": "mutagen",
      "ascendPreserve": "TRUE",
      "visible": "mutateeach > 0"
    },
    {
      "name": "mutantfreq",
      "slug": "mutation-frequency",
      "tab": "mutagen",
      "ascendPreserve": "TRUE",
      "visible": "mutatefreq > 0"
    },
    {
      "name": "mutantnexus",
      "slug": "lepidoptera-mutation",
      "tab": "mutagen",
      "ascendPreserve": "TRUE",
      "visible": "mutatenexus > 0"
    },
    {
      "name": "mutantarmy",
      "slug": "territory-mutation",
      "tab": "mutagen",
      "ascendPreserve": "TRUE",
      "visible": "mutatearmy > 0"
    },
    {
      "name": "mutantmeat",
      "slug": "meat-mutation",
      "tab": "mutagen",
      "ascendPreserve": "TRUE",
      "visible": "mutatemeat > 0"
    }
  ],
  "upgrades": [
    {
      "name": "expansion",
      "unit": "hatchery",
      "buyGroup": "expansion",
      "visible": "expansion > 0 || territory > 0",
      "isBulkBuyable": true
    },
    {
      "name": "droneprod",
      "unit": "drone",
      "buyGroup": "meatprod",
      "visible": "droneprod > 0 || drone > 66",
      "isBulkBuyable": true
    },
    {
      "name": "queenprod",
      "unit": "queen",
      "buyGroup": "meatprod",
      "visible": "queenprod > 0 || queen > 66",
      "isBulkBuyable": true
    },
    {
      "name": "nestprod",
      "unit": "nest",
      "buyGroup": "meatprod",
      "visible": "nestprod > 0 || nest > 66",
      "isBulkBuyable": true
    },
    {
      "name": "greaterqueenprod",
      "unit": "greaterqueen",
      "buyGroup": "meatprod",
      "visible": "greaterqueenprod > 0 || greaterqueen > 66",
      "isBulkBuyable": true
    },
    {
      "name": "hiveprod",
      "unit": "hive",
      "buyGroup": "meatprod",
      "visible": "hiveprod > 0 || hive > 66",
      "isBulkBuyable": true
    },
    {
      "name": "hivequeenprod",
      "unit": "hivequeen",
      "buyGroup": "meatprod",
      "visible": "hivequeenprod > 0 || hivequeen > 66",
      "isBulkBuyable": true
    },
    {
      "name": "empressprod",
      "unit": "empress",
      "buyGroup": "meatprod",
      "visible": "empressprod > 0 || empress > 66",
      "isBulkBuyable": true
    },
    {
      "name": "prophetprod",
      "unit": "prophet",
      "buyGroup": "meatprod",
      "visible": "prophetprod > 0 || prophet > 66",
      "isBulkBuyable": true
    },
    {
      "name": "goddessprod",
      "unit": "goddess",
      "buyGroup": "meatprod",
      "visible": "goddessprod > 0 || goddess > 66",
      "isBulkBuyable": true
    },
    {
      "name": "pantheonprod",
      "unit": "pantheon",
      "buyGroup": "meatprod",
      "visible": "pantheonprod > 0 || pantheon > 66",
      "isBulkBuyable": true
    },
    {
      "name": "pantheon2prod",
      "unit": "pantheon2",
      "buyGroup": "meatprod",
      "visible": "pantheon2prod > 0 || pantheon2 > 66",
      "isBulkBuyable": true
    },
    {
      "name": "pantheon3prod",
      "unit": "pantheon3",
      "buyGroup": "meatprod",
      "visible": "pantheon3prod > 0 || pantheon3 > 66",
      "isBulkBuyable": true
    },
    {
      "name": "pantheon4prod",
      "unit": "pantheon4",
      "buyGroup": "meatprod",
      "visible": "pantheon4prod > 0 || pantheon4 > 66",
      "isBulkBuyable": true
    },
    {
      "name": "pantheon5prod",
      "unit": "pantheon5",
      "buyGroup": "meatprod",
      "visible": "pantheon5prod > 0 || pantheon5 > 66",
      "isBulkBuyable": true
    },
    {
      "name": "overmindprod",
      "unit": "overmind",
      "buyGroup": "meatprod",
      "visible": "overmindprod > 0 || overmind > 66",
      "isBulkBuyable": true
    },
    {
      "name": "overmind2prod",
      "unit": "overmind2",
      "buyGroup": "meatprod",
      "visible": "overmind2prod > 0 || overmind2 > 66",
      "isBulkBuyable": true
    },
    {
      "name": "overmind3prod",
      "unit": "overmind3",
      "buyGroup": "meatprod",
      "visible": "overmind3prod > 0 || overmind3 > 66",
      "isBulkBuyable": true
    },
    {
      "name": "overmind4prod",
      "unit": "overmind4",
      "buyGroup": "meatprod",
      "visible": "overmind4prod > 0 || overmind4 > 66",
      "isBulkBuyable": true
    },
    {
      "name": "overmind5prod",
      "unit": "overmind5",
      "buyGroup": "meatprod",
      "visible": "overmind5prod > 0 || overmind5 > 66",
      "isBulkBuyable": true
    },
    {
      "name": "overmind6prod",
      "unit": "overmind6",
      "buyGroup": "meatprod",
      "visible": "overmind6prod > 0 || overmind6 > 66",
      "isBulkBuyable": true
    },
    {
      "name": "dronetwin",
      "unit": "drone",
      "buyGroup": "meattwin",
      "visible": "dronetwin > 0 || queen > 0",
      "isBulkBuyable": true
    },
    {
      "name": "queentwin",
      "unit": "queen",
      "buyGroup": "meattwin",
      "visible": "queentwin > 0 || nest > 0",
      "isBulkBuyable": true
    },
    {
      "name": "nesttwin",
      "unit": "nest",
      "buyGroup": "meattwin",
      "visible": "nesttwin > 0 || greaterqueen > 0",
      "isBulkBuyable": true
    },
    {
      "name": "greaterqueentwin",
      "unit": "greaterqueen",
      "buyGroup": "meattwin",
      "visible": "greaterqueentwin > 0 || hive > 0",
      "isBulkBuyable": true
    },
    {
      "name": "hivetwin",
      "unit": "hive",
      "buyGroup": "meattwin",
      "visible": "hivetwin > 0 || hivequeen > 0",
      "isBulkBuyable": true
    },
    {
      "name": "hivequeentwin",
      "unit": "hivequeen",
      "buyGroup": "meattwin",
      "visible": "hivequeentwin > 0 || empress > 0",
      "isBulkBuyable": true
    },
    {
      "name": "empresstwin",
      "unit": "empress",
      "buyGroup": "meattwin",
      "visible": "empresstwin > 0 || prophet > 0",
      "isBulkBuyable": true
    },
    {
      "name": "prophettwin",
      "unit": "prophet",
      "buyGroup": "meattwin",
      "visible": "prophettwin > 0 || goddess > 0",
      "isBulkBuyable": true
    },
    {
      "name": "goddesstwin",
      "unit": "goddess",
      "buyGroup": "meattwin",
      "visible": "goddesstwin > 0 || pantheon > 0",
      "isBulkBuyable": true
    },
    {
      "name": "pantheontwin",
      "unit": "pantheon",
      "buyGroup": "meattwin",
      "visible": "pantheontwin > 0 || pantheon2 > 0",
      "isBulkBuyable": true
    },
    {
      "name": "pantheon2twin",
      "unit": "pantheon2",
      "buyGroup": "meattwin",
      "visible": "pantheon2twin > 0 || pantheon3 > 0",
      "isBulkBuyable": true
    },
    {
      "name": "pantheon3twin",
      "unit": "pantheon3",
      "buyGroup": "meattwin",
      "visible": "pantheon3twin > 0 || pantheon4 > 0",
      "isBulkBuyable": true
    },
    {
      "name": "pantheon4twin",
      "unit": "pantheon4",
      "buyGroup": "meattwin",
      "visible": "pantheon4twin > 0 || pantheon5 > 0",
      "isBulkBuyable": true
    },
    {
      "name": "pantheon5twin",
      "unit": "pantheon5",
      "buyGroup": "meattwin",
      "visible": "pantheon5twin > 0 || overmind > 0",
      "isBulkBuyable": true
    },
    {
      "name": "overmindtwin",
      "unit": "overmind",
      "buyGroup": "meattwin",
      "visible": "overmindtwin > 0 || overmind2 > 0",
      "isBulkBuyable": true
    },
    {
      "name": "overmind2twin",
      "unit": "overmind2",
      "buyGroup": "meattwin",
      "visible": "overmind2twin > 0 || overmind3 > 0",
      "isBulkBuyable": true
    },
    {
      "name": "overmind3twin",
      "unit": "overmind3",
      "buyGroup": "meattwin",
      "visible": "overmind3twin > 0 || overmind4 > 0",
      "isBulkBuyable": true
    },
    {
      "name": "overmind4twin",
      "unit": "overmind4",
      "buyGroup": "meattwin",
      "visible": "overmind4twin > 0 || overmind5 > 0",
      "isBulkBuyable": true
    },
    {
      "name": "overmind5twin",
      "unit": "overmind5",
      "buyGroup": "meattwin",
      "visible": "overmind5twin > 0 || overmind6 > 0",
      "isBulkBuyable": true
    },
    {
      "name": "swarmlingtwin",
      "unit": "swarmling",
      "buyGroup": "territorytwin",
      "visible": true,
      "isBulkBuyable": true
    },
    {
      "name": "stingertwin",
      "unit": "stinger",
      "buyGroup": "territorytwin",
      "visible": true,
      "isBulkBuyable": true
    },
    {
      "name": "spidertwin",
      "unit": "spider",
      "buyGroup": "territorytwin",
      "visible": true,
      "isBulkBuyable": true
    },
    {
      "name": "mosquitotwin",
      "unit": "mosquito",
      "buyGroup": "territorytwin",
      "visible": true,
      "isBulkBuyable": true
    },
    {
      "name": "locusttwin",
      "unit": "locust",
      "buyGroup": "territorytwin",
      "visible": true,
      "isBulkBuyable": true
    },
    {
      "name": "roachtwin",
      "unit": "roach",
      "buyGroup": "territorytwin",
      "visible": true,
      "isBulkBuyable": true
    },
    {
      "name": "giantspidertwin",
      "unit": "giantspider",
      "buyGroup": "territorytwin",
      "visible": true,
      "isBulkBuyable": true
    },
    {
      "name": "centipedetwin",
      "unit": "centipede",
      "buyGroup": "territorytwin",
      "visible": true,
      "isBulkBuyable": true
    },
    {
      "name": "wasptwin",
      "unit": "wasp",
      "buyGroup": "territorytwin",
      "visible": true,
      "isBulkBuyable": true
    },
    {
      "name": "devourertwin",
      "unit": "devourer",
      "buyGroup": "territorytwin",
      "visible": true,
      "isBulkBuyable": true
    },
    {
      "name": "goontwin",
      "unit": "goon",
      "buyGroup": "territorytwin",
      "visible": true,
      "isBulkBuyable": true
    },
    {
      "name": "swarmlingempower",
      "unit": "swarmling",
      "buyGroup": "empower",
      "visible": "meat > 2.55379716870117E+029 || swarmlingempower > 0",
      "isBulkBuyable": true
    },
    {
      "name": "stingerempower",
      "unit": "stinger",
      "buyGroup": "empower",
      "visible": "meat > 1.14920872591553E+032 || stingerempower > 0",
      "isBulkBuyable": true
    },
    {
      "name": "spiderempower",
      "unit": "spider",
      "buyGroup": "empower",
      "visible": "meat > 5.17143926661987E+034 || spiderempower > 0",
      "isBulkBuyable": true
    },
    {
      "name": "mosquitoempower",
      "unit": "mosquito",
      "buyGroup": "empower",
      "visible": "meat > 2.32714766997894E+037 || mosquitoempower > 0",
      "isBulkBuyable": true
    },
    {
      "name": "locustempower",
      "unit": "locust",
      "buyGroup": "empower",
      "visible": "meat > 1.04721645149052E+040 || locustempower > 0",
      "isBulkBuyable": true
    },
    {
      "name": "roachempower",
      "unit": "roach",
      "buyGroup": "empower",
      "visible": "meat > 4.71247403170736E+042 || roachempower > 0",
      "isBulkBuyable": true
    },
    {
      "name": "giantspiderempower",
      "unit": "giantspider",
      "buyGroup": "empower",
      "visible": "meat > 2.12061331426831E+045 || giantspiderempower > 0",
      "isBulkBuyable": true
    },
    {
      "name": "centipedeempower",
      "unit": "centipede",
      "buyGroup": "empower",
      "visible": "meat > 9.5427599142074E+047 || centipedeempower > 0",
      "isBulkBuyable": true
    },
    {
      "name": "waspempower",
      "unit": "wasp",
      "buyGroup": "empower",
      "visible": "meat > 4.29424196139333E+050 || waspempower > 0",
      "isBulkBuyable": true
    },
    {
      "name": "devourerempower",
      "unit": "devourer",
      "buyGroup": "empower",
      "visible": "meat > 1.932408882627E+053 || devourerempower > 0",
      "isBulkBuyable": true
    },
    {
      "name": "goonempower",
      "unit": "goon",
      "buyGroup": "empower",
      "visible": "meat > 8.6958399718215E+055 || goonempower > 0",
      "isBulkBuyable": true
    },
    {
      "name": "nexus1",
      "unit": "nexus",
      "maxLevel": 1,
      "buyGroup": "nexus",
      "visible": "meat >= 333333333333",
      "isBulkBuyable": true
    },
    {
      "name": "nexus2",
      "unit": "nexus",
      "maxLevel": 1,
      "buyGroup": "nexus",
      "visible": "nexus >= 1",
      "isBulkBuyable": true
    },
    {
      "name": "nexus3",
      "unit": "nexus",
      "maxLevel": 1,
      "buyGroup": "nexus",
      "visible": "nexus >= 2",
      "isBulkBuyable": true
    },
    {
      "name": "nexus4",
      "unit": "nexus",
      "maxLevel": 1,
      "buyGroup": "nexus",
      "visible": "nexus >= 3",
      "isBulkBuyable": true
    },
    {
      "name": "nexus5",
      "unit": "nexus",
      "maxLevel": 1,
      "buyGroup": "nexus",
      "visible": "nexus >= 4",
      "isBulkBuyable": true
    },
    {
      "name": "cocooning",
      "unit": "larva",
      "maxLevel": 1,
      "buyGroup": "cocooning",
      "visible": "nexus >= 4",
      "isBulkBuyable": true
    },
    {
      "name": "mutatehatchery",
      "unit": "mutagen",
      "maxLevel": 1,
      "buyGroup": "mutatehatchery",
      "visible": "premutagen > 0 || mutagen > 0 || ascension > 0",
      "isBulkBuyable": false
    },
    {
      "name": "mutatebat",
      "unit": "mutagen",
      "maxLevel": 1,
      "buyGroup": "mutatebat",
      "visible": "premutagen > 0 || mutagen > 0 || ascension > 0",
      "isBulkBuyable": false
    },
    {
      "name": "mutateclone",
      "unit": "mutagen",
      "maxLevel": 1,
      "buyGroup": "mutateclone",
      "visible": "premutagen > 0 || mutagen > 0 || ascension > 0",
      "isBulkBuyable": false
    },
    {
      "name": "mutateswarmwarp",
      "unit": "mutagen",
      "maxLevel": 1,
      "buyGroup": "mutateswarmwarp",
      "visible": "premutagen > 0 || mutagen > 0 || ascension > 0",
      "isBulkBuyable": false
    },
    {
      "name": "mutaterush",
      "unit": "mutagen",
      "maxLevel": 1,
      "buyGroup": "mutaterush",
      "visible": "premutagen > 0 || mutagen > 0 || ascension > 0",
      "isBulkBuyable": false
    },
    {
      "name": "mutateeach",
      "unit": "mutagen",
      "maxLevel": 1,
      "buyGroup": "mutateeach",
      "visible": "premutagen > 0 || mutagen > 0 || ascension > 0",
      "isBulkBuyable": false
    },
    {
      "name": "mutatefreq",
      "unit": "mutagen",
      "maxLevel": 1,
      "buyGroup": "mutatefreq",
      "visible": "premutagen > 0 || mutagen > 0 || ascension > 0",
      "isBulkBuyable": false
    },
    {
      "name": "mutatenexus",
      "unit": "mutagen",
      "maxLevel": 1,
      "buyGroup": "mutatenexus",
      "visible": "premutagen > 0 || mutagen > 0 || ascension > 0",
      "isBulkBuyable": false
    },
    {
      "name": "mutatearmy",
      "unit": "mutagen",
      "maxLevel": 1,
      "buyGroup": "mutatearmy",
      "visible": "premutagen > 0 || mutagen > 0 || ascension > 0",
      "isBulkBuyable": false
    },
    {
      "name": "mutatemeat",
      "unit": "mutagen",
      "maxLevel": 1,
      "buyGroup": "mutatemeat",
      "visible": "premutagen > 0 || mutagen > 0 || ascension > 0",
      "isBulkBuyable": false
    },
    {
      "name": "achievementbonus",
      "unit": "hatchery",
      "maxLevel": 5,
      "buyGroup": "achievementbonus",
      "visible": "meat >= 50000",
      "isBulkBuyable": true
    }
  ],
  "spells": [
    {
      "name": "larvarush",
      "slug": "larva-rush",
      "tab": "energy",
      "visible": "nexus >= 1"
    },
    {
      "name": "swarmwarp",
      "slug": "swarmwarp",
      "tab": "energy",
      "visible": "nexus >= 1"
    },
    {
      "name": "meatrush",
      "slug": "meat-rush",
      "tab": "energy",
      "visible": "nexus >= 2"
    },
    {
      "name": "territoryrush",
      "slug": "territory-rush",
      "tab": "energy",
      "visible": "nexus >= 3"
    },
    {
      "name": "clonelarvae",
      "slug": "clone-larvae",
      "tab": "energy",
      "visible": "nexus >= 4"
    },
    {
      "name": "clonearmy",
      "slug": "house-of-mirrors",
      "tab": "energy",
      "visible": "nexus >= 5"
    },
    {
      "name": "mutagenrespec",
      "slug": "respec",
      "tab": "mutagen",
      "visible": "premutagen > 0 || mutagen > 0 || ascension > 0"
    }
  ],
  "achievements": [
    {
      "name": "tutorial",
      "points": 50,
      "trigger": "expansion >= 5",
      "visible": true
    },
    {
      "name": "expansion1",
      "points": 10,
      "trigger": "expansion >= 1",
      "visible": "territory >= 1"
    },
    {
      "name": "expansion2",
      "points": 20,
      "trigger": "expansion >= 20",
      "visible": "expansion >= 1"
    },
    {
      "name": "expansion3",
      "points": 30,
      "trigger": "expansion >= 50",
      "visible": "expansion >= 5"
    },
    {
      "name": "expansion4",
      "points": 40,
      "trigger": "expansion >= 100",
      "visible": "expansion >= 20"
    },
    {
      "name": "expansion5",
      "points": 50,
      "trigger": "expansion >= 200",
      "visible": "expansion >= 50"
    },
    {
      "name": "expansion6",
      "points": 60,
      "trigger": "expansion >= 500",
      "visible": "expansion >= 100"
    },
    {
      "name": "expansion7",
      "points": 70,
      "trigger": "expansion >= 1000",
      "visible": "expansion >= 200"
    },
    {
      "name": "expansion8",
      "points": 80,
      "trigger": "expansion >= 2000",
      "visible": "expansion >= 500"
    },
    {
      "name": "expansion9",
      "points": 90,
      "trigger": "expansion >= 5000",
      "visible": "expansion >= 1000"
    },
    {
      "name": "drone1",
      "points": 10,
      "trigger": "drone >= 1",
      "visible": true
    },
    {
      "name": "drone2",
      "points": 20,
      "trigger": "drone >= 201",
      "visible": true
    },
    {
      "name": "drone3",
      "points": 30,
      "trigger": "drone >= 10000",
      "visible": true
    },
    {
      "name": "queen1",
      "points": 10,
      "trigger": "queen >= 1",
      "visible": true
    },
    {
      "name": "queen2",
      "points": 20,
      "trigger": "queen >= 1e3",
      "visible": true
    },
    {
      "name": "queen3",
      "points": 30,
      "trigger": "queen >= 1e6",
      "visible": true
    },
    {
      "name": "nest1",
      "points": 10,
      "trigger": "nest >= 1",
      "visible": "queen >= 5"
    },
    {
      "name": "nest2",
      "points": 20,
      "trigger": "nest >= 1e4",
      "visible": "nest >= 1"
    },
    {
      "name": "nest3",
      "points": 30,
      "trigger": "nest >= 1e8",
      "visible": "nest >= 1"
    },
    {
      "name": "greaterqueen1",
      "points": 10,
      "trigger": "greaterqueen >= 1",
      "visible": "nest >= 5"
    },
    {
      "name": "greaterqueen2",
      "points": 20,
      "trigger": "greaterqueen >= 1e5",
      "visible": "greaterqueen >= 1"
    },
    {
      "name": "greaterqueen3",
      "points": 30,
      "trigger": "greaterqueen >= 1e10",
      "visible": "greaterqueen >= 1"
    },
    {
      "name": "hive1",
      "points": 10,
      "trigger": "hive >= 1",
      "visible": "greaterqueen >= 5"
    },
    {
      "name": "hive2",
      "points": 20,
      "trigger": "hive >= 1e6",
      "visible": "hive >= 1"
    },
    {
      "name": "hive3",
      "points": 30,
      "trigger": "hive >= 1e12",
      "visible": "hive >= 1"
    },
    {
      "name": "hivequeen1",
      "points": 10,
      "trigger": "hivequeen >= 1",
      "visible": "hive >= 5"
    },
    {
      "name": "hivequeen2",
      "points": 20,
      "trigger": "hivequeen >= 1e7",
      "visible": "hivequeen >= 1"
    },
    {
      "name": "hivequeen3",
      "points": 30,
      "trigger": "hivequeen >= 1e14",
      "visible": "hivequeen >= 1"
    },
    {
      "name": "empress1",
      "points": 10,
      "trigger": "empress >= 1",
      "visible": "hivequeen >= 5"
    },
    {
      "name": "empress2",
      "points": 20,
      "trigger": "empress >= 1e8",
      "visible": "empress >= 1"
    },
    {
      "name": "empress3",
      "points": 30,
      "trigger": "empress >= 1e16",
      "visible": "empress >= 1"
    },
    {
      "name": "prophet1",
      "points": 10,
      "trigger": "prophet >= 1",
      "visible": "empress >= 5"
    },
    {
      "name": "prophet2",
      "points": 20,
      "trigger": "prophet >= 1e9",
      "visible": "prophet >= 1"
    },
    {
      "name": "prophet3",
      "points": 30,
      "trigger": "prophet >= 1e18",
      "visible": "prophet >= 1"
    },
    {
      "name": "goddess1",
      "points": 10,
      "trigger": "goddess >= 1",
      "visible": "prophet >= 5"
    },
    {
      "name": "goddess2",
      "points": 20,
      "trigger": "goddess >= 1e10",
      "visible": "goddess >= 1"
    },
    {
      "name": "goddess3",
      "points": 30,
      "trigger": "goddess >= 1e20",
      "visible": "goddess >= 1"
    },
    {
      "name": "pantheon1",
      "points": 10,
      "trigger": "pantheon >= 1",
      "visible": "goddess >= 5"
    },
    {
      "name": "pantheon2",
      "points": 20,
      "trigger": "pantheon >= 1e11",
      "visible": "pantheon >= 1"
    },
    {
      "name": "pantheon3",
      "points": 30,
      "trigger": "pantheon >= 1e22",
      "visible": "pantheon >= 1"
    },
    {
      "name": "pantheon21",
      "points": 10,
      "trigger": "pantheon2 >= 1",
      "visible": "pantheon >= 5"
    },
    {
      "name": "pantheon22",
      "points": 20,
      "trigger": "pantheon2 >= 1e12",
      "visible": "pantheon2 >= 1"
    },
    {
      "name": "pantheon23",
      "points": 30,
      "trigger": "pantheon2 >= 1e24",
      "visible": "pantheon2 >= 1"
    },
    {
      "name": "pantheon31",
      "points": 10,
      "trigger": "pantheon3 >= 1",
      "visible": "pantheon2 >= 5"
    },
    {
      "name": "pantheon32",
      "points": 20,
      "trigger": "pantheon3 >= 1e13",
      "visible": "pantheon3 >= 1"
    },
    {
      "name": "pantheon33",
      "points": 30,
      "trigger": "pantheon3 >= 1e26",
      "visible": "pantheon3 >= 1"
    },
    {
      "name": "pantheon41",
      "points": 10,
      "trigger": "pantheon4 >= 1",
      "visible": "pantheon3 >= 5"
    },
    {
      "name": "pantheon42",
      "points": 20,
      "trigger": "pantheon4 >= 1e14",
      "visible": "pantheon4 >= 1"
    },
    {
      "name": "pantheon43",
      "points": 30,
      "trigger": "pantheon4 >= 1e28",
      "visible": "pantheon4 >= 1"
    },
    {
      "name": "pantheon51",
      "points": 10,
      "trigger": "pantheon5 >= 1",
      "visible": "pantheon4 >= 5"
    },
    {
      "name": "pantheon52",
      "points": 20,
      "trigger": "pantheon5 >= 1e15",
      "visible": "pantheon5 >= 1"
    },
    {
      "name": "pantheon53",
      "points": 30,
      "trigger": "pantheon5 >= 1e30",
      "visible": "pantheon5 >= 1"
    },
    {
      "name": "overmind1",
      "points": 10,
      "trigger": "overmind >= 1",
      "visible": "pantheon5 >= 5"
    },
    {
      "name": "overmind2",
      "points": 20,
      "trigger": "overmind >= 1e16",
      "visible": "overmind >= 1"
    },
    {
      "name": "overmind3",
      "points": 30,
      "trigger": "overmind >= 1e32",
      "visible": "overmind >= 1"
    },
    {
      "name": "overmind2_1",
      "points": 10,
      "trigger": "overmind2 >= 1",
      "visible": "overmind >= 5"
    },
    {
      "name": "overmind2_2",
      "points": 20,
      "trigger": "overmind2 >= 1e19",
      "visible": "overmind2 >= 1"
    },
    {
      "name": "overmind2_3",
      "points": 30,
      "trigger": "overmind2 >= 1e38",
      "visible": "overmind2 >= 1"
    },
    {
      "name": "overmind3_1",
      "points": 10,
      "trigger": "overmind3 >= 1",
      "visible": "overmind2 >= 5"
    },
    {
      "name": "overmind3_2",
      "points": 20,
      "trigger": "overmind3 >= 1e22",
      "visible": "overmind3 >= 1"
    },
    {
      "name": "overmind3_3",
      "points": 30,
      "trigger": "overmind3 >= 1e44",
      "visible": "overmind3 >= 1"
    },
    {
      "name": "overmind4_1",
      "points": 10,
      "trigger": "overmind4 >= 1",
      "visible": "overmind3 >= 5"
    },
    {
      "name": "overmind4_2",
      "points": 20,
      "trigger": "overmind4 >= 1e25",
      "visible": "overmind4 >= 1"
    },
    {
      "name": "overmind4_3",
      "points": 30,
      "trigger": "overmind4 >= 1e50",
      "visible": "overmind4 >= 1"
    },
    {
      "name": "overmind5_1",
      "points": 10,
      "trigger": "overmind5 >= 1",
      "visible": "overmind4 >= 5"
    },
    {
      "name": "overmind5_2",
      "points": 20,
      "trigger": "overmind5 >= 1e28",
      "visible": "overmind5 >= 1"
    },
    {
      "name": "overmind5_3",
      "points": 30,
      "trigger": "overmind5 >= 1e56",
      "visible": "overmind5 >= 1"
    },
    {
      "name": "overmind6_1",
      "points": 10,
      "trigger": "overmind6 >= 1",
      "visible": "overmind5 >= 5"
    },
    {
      "name": "overmind6_2",
      "points": 20,
      "trigger": "overmind6 >= 1e31",
      "visible": "overmind6 >= 1"
    },
    {
      "name": "overmind6_3",
      "points": 30,
      "trigger": "overmind6 >= 1e62",
      "visible": "overmind6 >= 1"
    },
    {
      "name": "ascension1",
      "points": 10,
      "trigger": "ascension >= 1",
      "visible": "expansion >= 40"
    },
    {
      "name": "ascension11",
      "points": 20,
      "trigger": "ascension >= 3",
      "visible": "ascension >= 1"
    },
    {
      "name": "ascension2",
      "points": 30,
      "trigger": "ascension >= 5",
      "visible": "ascension >= 1"
    },
    {
      "name": "ascension21",
      "points": 40,
      "trigger": "ascension >= 10",
      "visible": "ascension >= 1"
    },
    {
      "name": "ascension3",
      "points": 50,
      "trigger": "ascension >= 20",
      "visible": "ascension >= 1"
    },
    {
      "name": "mutation1",
      "points": 10,
      "trigger": "(mutatehatchery + mutatebat + mutateclone + mutateswarmwarp + mutaterush + mutateeach + mutatefreq + mutatenexus + mutatearmy + mutatemeat) >= 1",
      "visible": "ascension >= 1"
    },
    {
      "name": "mutation2",
      "points": 20,
      "trigger": "(mutatehatchery + mutatebat + mutateclone + mutateswarmwarp + mutaterush + mutateeach + mutatefreq + mutatenexus + mutatearmy + mutatemeat) >= 3",
      "visible": "(mutatehatchery + mutatebat + mutateclone + mutateswarmwarp + mutaterush + mutateeach + mutatefreq + mutatenexus + mutatearmy + mutatemeat) >= 1"
    },
    {
      "name": "mutation3",
      "points": 30,
      "trigger": "(mutatehatchery + mutatebat + mutateclone + mutateswarmwarp + mutaterush + mutateeach + mutatefreq + mutatenexus + mutatearmy + mutatemeat) >= 6",
      "visible": "(mutatehatchery + mutatebat + mutateclone + mutateswarmwarp + mutaterush + mutateeach + mutatefreq + mutatenexus + mutatearmy + mutatemeat) >= 1"
    },
    {
      "name": "mutation4",
      "points": 40,
      "trigger": "(mutatehatchery + mutatebat + mutateclone + mutateswarmwarp + mutaterush + mutateeach + mutatefreq + mutatenexus + mutatearmy + mutatemeat) >= 10",
      "visible": "(mutatehatchery + mutatebat + mutateclone + mutateswarmwarp + mutaterush + mutateeach + mutatefreq + mutatenexus + mutatearmy + mutatemeat) >= 1"
    },
    {
      "name": "swarmling1",
      "points": 10,
      "trigger": "swarmling >= 6",
      "visible": true
    },
    {
      "name": "swarmling2",
      "points": 10,
      "trigger": "swarmling >= 1e6",
      "visible": true
    },
    {
      "name": "swarmling3",
      "points": 10,
      "trigger": "swarmling >= 1e15",
      "visible": true
    },
    {
      "name": "stinger1",
      "points": 10,
      "trigger": "stinger >= 100",
      "visible": true
    },
    {
      "name": "stinger2",
      "points": 10,
      "trigger": "stinger >= 1e6",
      "visible": true
    },
    {
      "name": "stinger3",
      "points": 10,
      "trigger": "stinger >= 1e15",
      "visible": true
    },
    {
      "name": "spider1",
      "points": 10,
      "trigger": "spider >= 100",
      "visible": "spider >= 1"
    },
    {
      "name": "spider2",
      "points": 10,
      "trigger": "spider >= 1e6",
      "visible": "spider >= 1"
    },
    {
      "name": "spider3",
      "points": 10,
      "trigger": "spider >= 1e15",
      "visible": "spider >= 100"
    },
    {
      "name": "mosquito1",
      "points": 10,
      "trigger": "mosquito >= 100",
      "visible": "mosquito >= 1"
    },
    {
      "name": "mosquito2",
      "points": 10,
      "trigger": "mosquito >= 1e6",
      "visible": "mosquito >= 1"
    },
    {
      "name": "mosquito3",
      "points": 10,
      "trigger": "mosquito >= 1e15",
      "visible": "mosquito >= 100"
    },
    {
      "name": "locust1",
      "points": 10,
      "trigger": "locust >= 100",
      "visible": "locust >= 1"
    },
    {
      "name": "locust2",
      "points": 10,
      "trigger": "locust >= 1e6",
      "visible": "locust >= 1"
    },
    {
      "name": "locust3",
      "points": 10,
      "trigger": "locust >= 1e15",
      "visible": "locust >= 100"
    },
    {
      "name": "roach1",
      "points": 10,
      "trigger": "roach >= 100",
      "visible": "roach >= 1"
    },
    {
      "name": "roach2",
      "points": 10,
      "trigger": "roach >= 1e6",
      "visible": "roach >= 1"
    },
    {
      "name": "roach3",
      "points": 10,
      "trigger": "roach >= 1e15",
      "visible": "roach >= 100"
    },
    {
      "name": "giantspider1",
      "points": 10,
      "trigger": "giantspider >= 100",
      "visible": "giantspider >= 1"
    },
    {
      "name": "giantspider2",
      "points": 10,
      "trigger": "giantspider >= 1e6",
      "visible": "giantspider >= 1"
    },
    {
      "name": "giantspider3",
      "points": 10,
      "trigger": "giantspider >= 1e15",
      "visible": "giantspider >= 100"
    },
    {
      "name": "centipede1",
      "points": 10,
      "trigger": "centipede >= 100",
      "visible": "centipede >= 1"
    },
    {
      "name": "centipede2",
      "points": 10,
      "trigger": "centipede >= 1e6",
      "visible": "centipede >= 1"
    },
    {
      "name": "centipede3",
      "points": 10,
      "trigger": "centipede >= 1e15",
      "visible": "centipede >= 100"
    },
    {
      "name": "wasp1",
      "points": 10,
      "trigger": "wasp >= 100",
      "visible": "wasp >= 1"
    },
    {
      "name": "wasp2",
      "points": 10,
      "trigger": "wasp >= 1e6",
      "visible": "wasp >= 1"
    },
    {
      "name": "wasp3",
      "points": 10,
      "trigger": "wasp >= 1e15",
      "visible": "wasp >= 100"
    },
    {
      "name": "devourer1",
      "points": 10,
      "trigger": "devourer >= 100",
      "visible": "devourer >= 1"
    },
    {
      "name": "devourer2",
      "points": 10,
      "trigger": "devourer >= 1e6",
      "visible": "devourer >= 1"
    },
    {
      "name": "devourer3",
      "points": 10,
      "trigger": "devourer >= 1e15",
      "visible": "devourer >= 100"
    },
    {
      "name": "goon1",
      "points": 10,
      "trigger": "goon >= 100",
      "visible": "goon >= 1"
    },
    {
      "name": "goon2",
      "points": 10,
      "trigger": "goon >= 1e6",
      "visible": "goon >= 1"
    },
    {
      "name": "goon3",
      "points": 10,
      "trigger": "goon >= 1e15",
      "visible": "goon >= 100"
    },
    {
      "name": "nexus1",
      "points": 10,
      "trigger": "nexus1 >= 1",
      "visible": "meat >= 33333333333"
    },
    {
      "name": "nexus2",
      "points": 10,
      "trigger": "nexus5 >= 1",
      "visible": "nexus >= 1"
    }
  ],
  "achievements.events": [
    {
      "name": "changelog",
      "points": 10,
      "visible": true,
      "event": "changelog"
    },
    {
      "name": "import",
      "points": 10,
      "visible": true,
      "event": "import"
    },
    {
      "name": "clickme",
      "points": 30,
      "visible": false,
      "event": "achieveclick"
    },
    {
      "name": "konami",
      "points": 30,
      "visible": false,
      "event": "konami"
    },
    {
      "name": "debug",
      "points": 30,
      "visible": false,
      "event": "debugPage"
    },
    {
      "name": "publictest1",
      "points": 0,
      "visible": false,
      "event": "achieve-publictest1"
    },
    {
      "name": "therightquestion",
      "points": 0,
      "visible": false,
      "event": "therightquestion"
    },
    {
      "name": "bot-api",
      "points": 0,
      "visible": false,
      "event": "bot-api"
    }
  ],
  "costs.fixed": [
    {
      "name": "larva",
      "currency": "cocoon",
      "val": 1
    },
    {
      "name": "cocoon",
      "currency": "larva",
      "val": 1
    },
    {
      "name": "energy",
      "currency": "crystal",
      "val": 1
    },
    {
      "name": "drone",
      "currency": "meat",
      "val": 10
    },
    {
      "name": "drone",
      "currency": "larva",
      "val": 1
    },
    {
      "name": "queen",
      "currency": "meat",
      "val": 810
    },
    {
      "name": "queen",
      "currency": "drone",
      "val": 100
    },
    {
      "name": "queen",
      "currency": "larva",
      "val": 1
    },
    {
      "name": "nest",
      "currency": "meat",
      "val": 72900
    },
    {
      "name": "nest",
      "currency": "queen",
      "val": 1000
    },
    {
      "name": "nest",
      "currency": "larva",
      "val": 1
    },
    {
      "name": "greaterqueen",
      "currency": "meat",
      "val": 6561000
    },
    {
      "name": "greaterqueen",
      "currency": "nest",
      "val": 10000
    },
    {
      "name": "greaterqueen",
      "currency": "larva",
      "val": 1
    },
    {
      "name": "hive",
      "currency": "meat",
      "val": 590490000
    },
    {
      "name": "hive",
      "currency": "greaterqueen",
      "val": 100000
    },
    {
      "name": "hive",
      "currency": "larva",
      "val": 1
    },
    {
      "name": "hivequeen",
      "currency": "meat",
      "val": 53144100000
    },
    {
      "name": "hivequeen",
      "currency": "hive",
      "val": 1000000
    },
    {
      "name": "hivequeen",
      "currency": "larva",
      "val": 1
    },
    {
      "name": "empress",
      "currency": "meat",
      "val": 4782969000000
    },
    {
      "name": "empress",
      "currency": "hivequeen",
      "val": 10000000
    },
    {
      "name": "empress",
      "currency": "larva",
      "val": 1
    },
    {
      "name": "prophet",
      "currency": "meat",
      "val": 430467210000000
    },
    {
      "name": "prophet",
      "currency": "empress",
      "val": 100000000
    },
    {
      "name": "prophet",
      "currency": "larva",
      "val": 1
    },
    {
      "name": "goddess",
      "currency": "meat",
      "val": 38742000000000000
    },
    {
      "name": "goddess",
      "currency": "prophet",
      "val": 1000000000
    },
    {
      "name": "goddess",
      "currency": "larva",
      "val": 1
    },
    {
      "name": "pantheon",
      "currency": "meat",
      "val": 3486780000000000000
    },
    {
      "name": "pantheon",
      "currency": "goddess",
      "val": 10000000000
    },
    {
      "name": "pantheon",
      "currency": "larva",
      "val": 1
    },
    {
      "name": "pantheon2",
      "currency": "meat",
      "val": 313811000000000000000
    },
    {
      "name": "pantheon2",
      "currency": "pantheon",
      "val": 1000000000000
    },
    {
      "name": "pantheon2",
      "currency": "larva",
      "val": 1
    },
    {
      "name": "pantheon3",
      "currency": "meat",
      "val": 2.8243e+22
    },
    {
      "name": "pantheon3",
      "currency": "pantheon2",
      "val": 100000000000000
    },
    {
      "name": "pantheon3",
      "currency": "larva",
      "val": 1
    },
    {
      "name": "pantheon4",
      "currency": "meat",
      "val": 2.54187e+24
    },
    {
      "name": "pantheon4",
      "currency": "pantheon3",
      "val": 10000000000000000
    },
    {
      "name": "pantheon4",
      "currency": "larva",
      "val": 1
    },
    {
      "name": "pantheon5",
      "currency": "meat",
      "val": 2.28768e+26
    },
    {
      "name": "pantheon5",
      "currency": "pantheon4",
      "val": 10000000000000000000
    },
    {
      "name": "pantheon5",
      "currency": "larva",
      "val": 1
    },
    {
      "name": "overmind",
      "currency": "meat",
      "val": 2.05891e+28
    },
    {
      "name": "overmind",
      "currency": "pantheon5",
      "val": 1e+23
    },
    {
      "name": "overmind",
      "currency": "larva",
      "val": 1
    },
    {
      "name": "overmind2",
      "currency": "meat",
      "val": 1.85302e+30
    },
    {
      "name": "overmind2",
      "currency": "overmind",
      "val": 1e+28
    },
    {
      "name": "overmind2",
      "currency": "larva",
      "val": 1
    },
    {
      "name": "overmind3",
      "currency": "meat",
      "val": 1.66772e+32
    },
    {
      "name": "overmind3",
      "currency": "overmind2",
      "val": 1e+34
    },
    {
      "name": "overmind3",
      "currency": "larva",
      "val": 1
    },
    {
      "name": "overmind4",
      "currency": "meat",
      "val": 1.50095e+34
    },
    {
      "name": "overmind4",
      "currency": "overmind3",
      "val": 1e+41
    },
    {
      "name": "overmind4",
      "currency": "larva",
      "val": 1
    },
    {
      "name": "overmind5",
      "currency": "meat",
      "val": 1.35085e+36
    },
    {
      "name": "overmind5",
      "currency": "overmind4",
      "val": 1e+49
    },
    {
      "name": "overmind5",
      "currency": "larva",
      "val": 1
    },
    {
      "name": "overmind6",
      "currency": "meat",
      "val": 1.21577e+38
    },
    {
      "name": "overmind6",
      "currency": "overmind5",
      "val": 1e+58
    },
    {
      "name": "overmind6",
      "currency": "larva",
      "val": 1
    },
    {
      "name": "swarmling",
      "currency": "meat",
      "val": "750 * 1.5322783012207E+029 ^ swarmlingempower"
    },
    {
      "name": "stinger",
      "currency": "meat",
      "val": "337500 * 1.5322783012207E+029 ^ stingerempower"
    },
    {
      "name": "spider",
      "currency": "meat",
      "val": "151875000 * 1.5322783012207E+029 ^ spiderempower"
    },
    {
      "name": "mosquito",
      "currency": "meat",
      "val": "68343750000 * 1.5322783012207E+029 ^ mosquitoempower"
    },
    {
      "name": "locust",
      "currency": "meat",
      "val": "30754687500000 * 1.5322783012207E+029 ^ locustempower"
    },
    {
      "name": "roach",
      "currency": "meat",
      "val": "1.3839609375E+016 * 1.5322783012207E+029 ^ roachempower"
    },
    {
      "name": "giantspider",
      "currency": "meat",
      "val": "6.22782421875E+018 * 1.5322783012207E+029 ^ giantspiderempower"
    },
    {
      "name": "centipede",
      "currency": "meat",
      "val": "2.8025208984375E+021 * 1.5322783012207E+029 ^ centipedeempower"
    },
    {
      "name": "wasp",
      "currency": "meat",
      "val": "1.26113440429688E+024 * 1.5322783012207E+029 ^ waspempower"
    },
    {
      "name": "devourer",
      "currency": "meat",
      "val": "5.67510481933594E+026 * 1.5322783012207E+029 ^ devourerempower"
    },
    {
      "name": "goon",
      "currency": "meat",
      "val": "2.55379716870117E+029 * 1.5322783012207E+029 ^ goonempower"
    },
    {
      "name": "swarmling",
      "currency": "larva",
      "val": 1
    },
    {
      "name": "stinger",
      "currency": "larva",
      "val": 1
    },
    {
      "name": "spider",
      "currency": "larva",
      "val": 1
    },
    {
      "name": "mosquito",
      "currency": "larva",
      "val": 1
    },
    {
      "name": "locust",
      "currency": "larva",
      "val": 1
    },
    {
      "name": "roach",
      "currency": "larva",
      "val": 1
    },
    {
      "name": "giantspider",
      "currency": "larva",
      "val": 1
    },
    {
      "name": "centipede",
      "currency": "larva",
      "val": 1
    },
    {
      "name": "wasp",
      "currency": "larva",
      "val": 1
    },
    {
      "name": "devourer",
      "currency": "larva",
      "val": 1
    },
    {
      "name": "goon",
      "currency": "larva",
      "val": 1
    },
    {
      "name": "nightbug",
      "currency": "energy",
      "val": 10
    },
    {
      "name": "nightbug",
      "currency": "larva",
      "val": 1
    },
    {
      "name": "moth",
      "currency": "energy",
      "val": 10
    },
    {
      "name": "moth",
      "currency": "larva",
      "val": 1
    },
    {
      "name": "bat",
      "currency": "energy",
      "val": 100
    },
    {
      "name": "bat",
      "currency": "larva",
      "val": 1
    },
    {
      "name": "mutanthatchery",
      "currency": "mutagen",
      "val": 1
    },
    {
      "name": "mutantbat",
      "currency": "mutagen",
      "val": 1
    },
    {
      "name": "mutantclone",
      "currency": "mutagen",
      "val": 1
    },
    {
      "name": "mutantswarmwarp",
      "currency": "mutagen",
      "val": 1
    },
    {
      "name": "mutantrush",
      "currency": "mutagen",
      "val": 1
    },
    {
      "name": "mutanteach",
      "currency": "mutagen",
      "val": 1
    },
    {
      "name": "mutantfreq",
      "currency": "mutagen",
      "val": 1
    },
    {
      "name": "mutantnexus",
      "currency": "mutagen",
      "val": 1
    },
    {
      "name": "mutantarmy",
      "currency": "mutagen",
      "val": 1
    },
    {
      "name": "mutantmeat",
      "currency": "mutagen",
      "val": 1
    },
    {
      "name": "nexus1",
      "currency": "meat",
      "val": 3333333333333
    },
    {
      "name": "nexus2",
      "currency": "meat",
      "val": 3333330000000000
    },
    {
      "name": "nexus2",
      "currency": "energy",
      "val": 625
    },
    {
      "name": "nexus3",
      "currency": "meat",
      "val": 3333330000000000000
    },
    {
      "name": "nexus3",
      "currency": "energy",
      "val": 2500
    },
    {
      "name": "nexus3",
      "currency": "larva",
      "val": 3333333
    },
    {
      "name": "nexus4",
      "currency": "meat",
      "val": 3.33333e+21
    },
    {
      "name": "nexus4",
      "currency": "energy",
      "val": 10000
    },
    {
      "name": "nexus4",
      "currency": "larva",
      "val": 33333330
    },
    {
      "name": "nexus5",
      "currency": "meat",
      "val": 3.33333e+24
    },
    {
      "name": "nexus5",
      "currency": "energy",
      "val": 36000
    },
    {
      "name": "nexus5",
      "currency": "larva",
      "val": 3333333000
    },
    {
      "name": "cocooning",
      "currency": "meat",
      "val": 3.33333e+21
    },
    {
      "name": "larvarush",
      "currency": "energy",
      "val": 1600
    },
    {
      "name": "swarmwarp",
      "currency": "energy",
      "val": 2000
    },
    {
      "name": "meatrush",
      "currency": "energy",
      "val": 1600
    },
    {
      "name": "territoryrush",
      "currency": "energy",
      "val": 1600
    },
    {
      "name": "clonelarvae",
      "currency": "energy",
      "val": 12000
    },
    {
      "name": "clonearmy",
      "currency": "energy",
      "val": 2500
    },
    {
      "name": "mutatehatchery",
      "currency": "mutagen",
      "val": "15625 ^ (mutatehatchery + mutatebat + mutateclone + mutateswarmwarp + mutaterush + mutateeach + mutatefreq + mutatenexus + mutatearmy + mutatemeat)"
    },
    {
      "name": "mutatebat",
      "currency": "mutagen",
      "val": "15625 ^ (mutatehatchery + mutatebat + mutateclone + mutateswarmwarp + mutaterush + mutateeach + mutatefreq + mutatenexus + mutatearmy + mutatemeat)"
    },
    {
      "name": "mutateclone",
      "currency": "mutagen",
      "val": "15625 ^ (mutatehatchery + mutatebat + mutateclone + mutateswarmwarp + mutaterush + mutateeach + mutatefreq + mutatenexus + mutatearmy + mutatemeat)"
    },
    {
      "name": "mutateswarmwarp",
      "currency": "mutagen",
      "val": "15625 ^ (mutatehatchery + mutatebat + mutateclone + mutateswarmwarp + mutaterush + mutateeach + mutatefreq + mutatenexus + mutatearmy + mutatemeat)"
    },
    {
      "name": "mutaterush",
      "currency": "mutagen",
      "val": "15625 ^ (mutatehatchery + mutatebat + mutateclone + mutateswarmwarp + mutaterush + mutateeach + mutatefreq + mutatenexus + mutatearmy + mutatemeat)"
    },
    {
      "name": "mutateeach",
      "currency": "mutagen",
      "val": "15625 ^ (mutatehatchery + mutatebat + mutateclone + mutateswarmwarp + mutaterush + mutateeach + mutatefreq + mutatenexus + mutatearmy + mutatemeat)"
    },
    {
      "name": "mutatefreq",
      "currency": "mutagen",
      "val": "15625 ^ (mutatehatchery + mutatebat + mutateclone + mutateswarmwarp + mutaterush + mutateeach + mutatefreq + mutatenexus + mutatearmy + mutatemeat)"
    },
    {
      "name": "mutatenexus",
      "currency": "mutagen",
      "val": "15625 ^ (mutatehatchery + mutatebat + mutateclone + mutateswarmwarp + mutaterush + mutateeach + mutatefreq + mutatenexus + mutatearmy + mutatemeat)"
    },
    {
      "name": "mutatearmy",
      "currency": "mutagen",
      "val": "15625 ^ (mutatehatchery + mutatebat + mutateclone + mutateswarmwarp + mutaterush + mutateeach + mutatefreq + mutatenexus + mutatearmy + mutatemeat)"
    },
    {
      "name": "mutatemeat",
      "currency": "mutagen",
      "val": "15625 ^ (mutatehatchery + mutatebat + mutateclone + mutateswarmwarp + mutaterush + mutateeach + mutatefreq + mutatenexus + mutatearmy + mutatemeat)"
    },
    {
      "name": "ascension",
      "currency": "energy",
      "val": "let cost_halved_at = 50000 * (mutation: 1 + (mutation_max: 0.6) * (1 - 1/(1 + 0.0005 * mutantnexus))); in (5000000 * 1.12 ^ ascension) / (2 ^ (energy_spent / cost_halved_at))"
    },
    {
      "name": "mutagenrespec",
      "currency": "crystal",
      "val": 5000
    }
  ],
  "costs.factor": [
    {
      "name": "hatchery",
      "currency": "meat",
      "init": 30,
      "factor": 10
    },
    {
      "name": "expansion",
      "currency": "territory",
      "init": 10,
      "factor": 2.45
    },
    {
      "name": "droneprod",
      "currency": "drone",
      "init": 66,
      "factor": 666
    },
    {
      "name": "queenprod",
      "currency": "queen",
      "init": 66,
      "factor": 666
    },
    {
      "name": "nestprod",
      "currency": "nest",
      "init": 66,
      "factor": 666
    },
    {
      "name": "greaterqueenprod",
      "currency": "greaterqueen",
      "init": 66,
      "factor": 666
    },
    {
      "name": "hiveprod",
      "currency": "hive",
      "init": 66,
      "factor": 666
    },
    {
      "name": "hivequeenprod",
      "currency": "hivequeen",
      "init": 66,
      "factor": 666
    },
    {
      "name": "empressprod",
      "currency": "empress",
      "init": 66,
      "factor": 666
    },
    {
      "name": "prophetprod",
      "currency": "prophet",
      "init": 66,
      "factor": 666
    },
    {
      "name": "goddessprod",
      "currency": "goddess",
      "init": 66,
      "factor": 666
    },
    {
      "name": "pantheonprod",
      "currency": "pantheon",
      "init": 66,
      "factor": 666
    },
    {
      "name": "pantheon2prod",
      "currency": "pantheon2",
      "init": 66,
      "factor": 666
    },
    {
      "name": "pantheon3prod",
      "currency": "pantheon3",
      "init": 66,
      "factor": 666
    },
    {
      "name": "pantheon4prod",
      "currency": "pantheon4",
      "init": 66,
      "factor": 666
    },
    {
      "name": "pantheon5prod",
      "currency": "pantheon5",
      "init": 66,
      "factor": 666
    },
    {
      "name": "overmindprod",
      "currency": "overmind",
      "init": 66,
      "factor": 666
    },
    {
      "name": "overmind2prod",
      "currency": "overmind2",
      "init": 66,
      "factor": 666
    },
    {
      "name": "overmind3prod",
      "currency": "overmind3",
      "init": 66,
      "factor": 666
    },
    {
      "name": "overmind4prod",
      "currency": "overmind4",
      "init": 66,
      "factor": 666
    },
    {
      "name": "overmind5prod",
      "currency": "overmind5",
      "init": 66,
      "factor": 666
    },
    {
      "name": "overmind6prod",
      "currency": "overmind6",
      "init": 66,
      "factor": 666
    },
    {
      "name": "dronetwin",
      "currency": "queen",
      "init": 1,
      "factor": 10
    },
    {
      "name": "queentwin",
      "currency": "nest",
      "init": 1,
      "factor": 10
    },
    {
      "name": "nesttwin",
      "currency": "greaterqueen",
      "init": 1,
      "factor": 10
    },
    {
      "name": "greaterqueentwin",
      "currency": "hive",
      "init": 1,
      "factor": 10
    },
    {
      "name": "hivetwin",
      "currency": "hivequeen",
      "init": 1,
      "factor": 10
    },
    {
      "name": "hivequeentwin",
      "currency": "empress",
      "init": 1,
      "factor": 10
    },
    {
      "name": "empresstwin",
      "currency": "prophet",
      "init": 1,
      "factor": 10
    },
    {
      "name": "prophettwin",
      "currency": "goddess",
      "init": 1,
      "factor": 10
    },
    {
      "name": "goddesstwin",
      "currency": "pantheon",
      "init": 1,
      "factor": 10
    },
    {
      "name": "pantheontwin",
      "currency": "pantheon2",
      "init": 1,
      "factor": 10
    },
    {
      "name": "pantheon2twin",
      "currency": "pantheon3",
      "init": 1,
      "factor": 10
    },
    {
      "name": "pantheon3twin",
      "currency": "pantheon4",
      "init": 1,
      "factor": 10
    },
    {
      "name": "pantheon4twin",
      "currency": "pantheon5",
      "init": 1,
      "factor": 10
    },
    {
      "name": "pantheon5twin",
      "currency": "overmind",
      "init": 1,
      "factor": 10
    },
    {
      "name": "overmindtwin",
      "currency": "overmind2",
      "init": 1,
      "factor": 12
    },
    {
      "name": "overmind2twin",
      "currency": "overmind3",
      "init": 1,
      "factor": 14
    },
    {
      "name": "overmind3twin",
      "currency": "overmind4",
      "init": 1,
      "factor": 16
    },
    {
      "name": "overmind4twin",
      "currency": "overmind5",
      "init": 1,
      "factor": 18
    },
    {
      "name": "overmind5twin",
      "currency": "overmind6",
      "init": 1,
      "factor": 20
    },
    {
      "name": "swarmlingtwin",
      "currency": "meat",
      "init": 100,
      "factor": 500
    },
    {
      "name": "swarmlingtwin",
      "currency": "larva",
      "init": 1,
      "factor": 50
    },
    {
      "name": "stingertwin",
      "currency": "meat",
      "init": 100,
      "factor": 500
    },
    {
      "name": "stingertwin",
      "currency": "larva",
      "init": 1,
      "factor": 50
    },
    {
      "name": "spidertwin",
      "currency": "meat",
      "init": 100,
      "factor": 500
    },
    {
      "name": "spidertwin",
      "currency": "larva",
      "init": 1,
      "factor": 50
    },
    {
      "name": "mosquitotwin",
      "currency": "meat",
      "init": 100,
      "factor": 500
    },
    {
      "name": "mosquitotwin",
      "currency": "larva",
      "init": 1,
      "factor": 50
    },
    {
      "name": "locusttwin",
      "currency": "meat",
      "init": 100,
      "factor": 500
    },
    {
      "name": "locusttwin",
      "currency": "larva",
      "init": 1,
      "factor": 50
    },
    {
      "name": "roachtwin",
      "currency": "meat",
      "init": 100,
      "factor": 500
    },
    {
      "name": "roachtwin",
      "currency": "larva",
      "init": 1,
      "factor": 50
    },
    {
      "name": "giantspidertwin",
      "currency": "meat",
      "init": 100,
      "factor": 500
    },
    {
      "name": "giantspidertwin",
      "currency": "larva",
      "init": 1,
      "factor": 50
    },
    {
      "name": "centipedetwin",
      "currency": "meat",
      "init": 100,
      "factor": 500
    },
    {
      "name": "centipedetwin",
      "currency": "larva",
      "init": 1,
      "factor": 50
    },
    {
      "name": "wasptwin",
      "currency": "meat",
      "init": 100,
      "factor": 500
    },
    {
      "name": "wasptwin",
      "currency": "larva",
      "init": 1,
      "factor": 50
    },
    {
      "name": "devourertwin",
      "currency": "meat",
      "init": 100,
      "factor": 500
    },
    {
      "name": "devourertwin",
      "currency": "larva",
      "init": 1,
      "factor": 50
    },
    {
      "name": "goontwin",
      "currency": "meat",
      "init": 100,
      "factor": 500
    },
    {
      "name": "goontwin",
      "currency": "larva",
      "init": 1,
      "factor": 50
    },
    {
      "name": "swarmlingempower",
      "currency": "meat",
      "init": 1.14920872591553e+32,
      "factor": 1.5322783012207e+29
    },
    {
      "name": "stingerempower",
      "currency": "meat",
      "init": 5.17143926661987e+34,
      "factor": 1.5322783012207e+29
    },
    {
      "name": "spiderempower",
      "currency": "meat",
      "init": 2.32714766997894e+37,
      "factor": 1.5322783012207e+29
    },
    {
      "name": "mosquitoempower",
      "currency": "meat",
      "init": 1.04721645149052e+40,
      "factor": 1.5322783012207e+29
    },
    {
      "name": "locustempower",
      "currency": "meat",
      "init": 4.71247403170736e+42,
      "factor": 1.5322783012207e+29
    },
    {
      "name": "roachempower",
      "currency": "meat",
      "init": 2.12061331426831e+45,
      "factor": 1.5322783012207e+29
    },
    {
      "name": "giantspiderempower",
      "currency": "meat",
      "init": 9.5427599142074e+47,
      "factor": 1.5322783012207e+29
    },
    {
      "name": "centipedeempower",
      "currency": "meat",
      "init": 4.29424196139333e+50,
      "factor": 1.5322783012207e+29
    },
    {
      "name": "waspempower",
      "currency": "meat",
      "init": 1.932408882627e+53,
      "factor": 1.5322783012207e+29
    },
    {
      "name": "devourerempower",
      "currency": "meat",
      "init": 8.6958399718215e+55,
      "factor": 1.5322783012207e+29
    },
    {
      "name": "goonempower",
      "currency": "meat",
      "init": 3.91312798731967e+58,
      "factor": 1.5322783012207e+29
    },
    {
      "name": "achievementbonus",
      "currency": "meat",
      "init": 5000000,
      "factor": 10000
    },
    {
      "name": "achievementbonus",
      "currency": "territory",
      "init": 500,
      "factor": 10000
    }
  ],
  "mtx": [
    {
      "name": "crystal000",
      "label": "10,000 crystals",
      "description": "10,000 crystals",
      "price_kreds": 10,
      "price_usd_paypal": 99,
      "uses": 1,
      "pack.unittype": "crystal",
      "bulkbonus": 1,
      "pack.val": 10000,
      "paypalSandboxUrl": "https://www.sandbox.paypal.com/cgi-bin/webscr?cmd=_s-xclick&hosted_button_id=UR3ERFKN6ZCGW",
      "paypalElmSwarmsimDotComUrl": "https://www.paypal.com/cgi-bin/webscr?cmd=_s-xclick&hosted_button_id=AM6AGT6AHP4SG",
      "paypalSwarmsimDotComUrl": "https://www.paypal.com/cgi-bin/webscr?cmd=_s-xclick&hosted_button_id=BKFVLKDDRLLTG",
      "old.paypalSwarmsimDotComUrl": "https://www.paypal.com/cgi-bin/webscr?cmd=_s-xclick&hosted_button_id=29XGRZEGPPTGQ",
      "old.paypalSandboxUrl": "https://www.sandbox.paypal.com/cgi-bin/webscr?cmd=_s-xclick&hosted_button_id=A4DNJ5VY8MWV8",
      "old.paypalLegacyGithubUrl": "https://www.paypal.com/cgi-bin/webscr?cmd=_s-xclick&hosted_button_id=VTLR9A5SGD88U"
    },
    {
      "name": "crystal001",
      "label": "55,000 crystals",
      "description": "55,000 crystals",
      "price_kreds": 50,
      "price_usd_paypal": 499,
      "uses": 1,
      "pack.unittype": "crystal",
      "bulkbonus": 1.1,
      "pack.val": 55000,
      "paypalSandboxUrl": "https://www.sandbox.paypal.com/cgi-bin/webscr?cmd=_s-xclick&hosted_button_id=VH3WP3789YUNL",
      "paypalElmSwarmsimDotComUrl": "https://www.paypal.com/cgi-bin/webscr?cmd=_s-xclick&hosted_button_id=B7QJB5WKA2N54",
      "paypalSwarmsimDotComUrl": "https://www.paypal.com/cgi-bin/webscr?cmd=_s-xclick&hosted_button_id=UBET59G84EHX2",
      "old.paypalSwarmsimDotComUrl": "https://www.paypal.com/cgi-bin/webscr?cmd=_s-xclick&hosted_button_id=9CY7ETN5WSGAL",
      "old.paypalSandboxUrl": "https://www.sandbox.paypal.com/cgi-bin/webscr?cmd=_s-xclick&hosted_button_id=H982J7ACEWUUC",
      "old.paypalLegacyGithubUrl": "https://www.paypal.com/cgi-bin/webscr?cmd=_s-xclick&hosted_button_id=UQYE7GYCB93M4"
    },
    {
      "name": "crystal002",
      "label": "120,000 crystals",
      "description": "120,000 crystals",
      "price_kreds": 100,
      "price_usd_paypal": 999,
      "uses": 1,
      "pack.unittype": "crystal",
      "bulkbonus": 1.2,
      "pack.val": 120000,
      "paypalSandboxUrl": "https://www.sandbox.paypal.com/cgi-bin/webscr?cmd=_s-xclick&hosted_button_id=RXVRJP7MZ2YWU",
      "paypalElmSwarmsimDotComUrl": "https://www.paypal.com/cgi-bin/webscr?cmd=_s-xclick&hosted_button_id=EHNDLWMWSP7EA",
      "paypalSwarmsimDotComUrl": "https://www.paypal.com/cgi-bin/webscr?cmd=_s-xclick&hosted_button_id=UBFAWBTZNTQMQ",
      "old.paypalSwarmsimDotComUrl": "https://www.paypal.com/cgi-bin/webscr?cmd=_s-xclick&hosted_button_id=DTQ7YNRWUCFPY",
      "old.paypalSandboxUrl": "https://www.sandbox.paypal.com/cgi-bin/webscr?cmd=_s-xclick&hosted_button_id=KBAEKDS5JDBKS",
      "old.paypalLegacyGithubUrl": "https://www.paypal.com/cgi-bin/webscr?cmd=_s-xclick&hosted_button_id=BFP63KZ2SAVWE"
    },
    {
      "name": "crystal003",
      "label": "260,000 crystals",
      "description": "260,000 crystals",
      "price_kreds": 200,
      "price_usd_paypal": 1999,
      "uses": 1,
      "pack.unittype": "crystal",
      "bulkbonus": 1.3,
      "pack.val": 260000,
      "paypalSandboxUrl": "https://www.sandbox.paypal.com/cgi-bin/webscr?cmd=_s-xclick&hosted_button_id=EVPLW3EYTY4JY",
      "paypalElmSwarmsimDotComUrl": "https://www.paypal.com/cgi-bin/webscr?cmd=_s-xclick&hosted_button_id=47E8K64T56V8E",
      "paypalSwarmsimDotComUrl": "https://www.paypal.com/cgi-bin/webscr?cmd=_s-xclick&hosted_button_id=ZTWCUUTBQEZ5N",
      "old.paypalSwarmsimDotComUrl": "https://www.paypal.com/cgi-bin/webscr?cmd=_s-xclick&hosted_button_id=3ARXXBEL8Z5X4",
      "old.paypalSandboxUrl": "https://www.sandbox.paypal.com/cgi-bin/webscr?cmd=_s-xclick&hosted_button_id=YP45TQT6UM2P8",
      "old.paypalLegacyGithubUrl": "https://www.paypal.com/cgi-bin/webscr?cmd=_s-xclick&hosted_button_id=3VLJDNEYEHJ9Y"
    },
    {
      "name": "crystal004",
      "label": "700,000 crystals",
      "description": "700,000 crystals",
      "price_kreds": 500,
      "price_usd_paypal": 4999,
      "uses": 1,
      "pack.unittype": "crystal",
      "bulkbonus": 1.4,
      "pack.val": 700000,
      "paypalSandboxUrl": "https://www.sandbox.paypal.com/cgi-bin/webscr?cmd=_s-xclick&hosted_button_id=7GNDMCEBQQRAE",
      "paypalElmSwarmsimDotComUrl": "https://www.paypal.com/cgi-bin/webscr?cmd=_s-xclick&hosted_button_id=WMFE3UKG73CYS",
      "paypalSwarmsimDotComUrl": "https://www.paypal.com/cgi-bin/webscr?cmd=_s-xclick&hosted_button_id=T7RBM27YL2TC8",
      "old.paypalSwarmsimDotComUrl": "https://www.paypal.com/cgi-bin/webscr?cmd=_s-xclick&hosted_button_id=J35H9EGN48DPW",
      "old.paypalSandboxUrl": "https://www.sandbox.paypal.com/cgi-bin/webscr?cmd=_s-xclick&hosted_button_id=QB5KNYZCCEHD4",
      "old.paypalLegacyGithubUrl": "https://www.paypal.com/cgi-bin/webscr?cmd=_s-xclick&hosted_button_id=YYFCE3PQ4KY8Y"
    },
    {
      "name": "crystal005",
      "label": "1,500,000 crystals",
      "description": "1,500,000 crystals",
      "price_kreds": 1000,
      "price_usd_paypal": 9999,
      "uses": 1,
      "pack.unittype": "crystal",
      "bulkbonus": 1.5,
      "pack.val": 1500000,
      "paypalSandboxUrl": "https://www.sandbox.paypal.com/cgi-bin/webscr?cmd=_s-xclick&hosted_button_id=ALSAUVZPL87ZU",
      "paypalElmSwarmsimDotComUrl": "https://www.paypal.com/cgi-bin/webscr?cmd=_s-xclick&hosted_button_id=79HHT8AUS4WDA",
      "paypalSwarmsimDotComUrl": "https://www.paypal.com/cgi-bin/webscr?cmd=_s-xclick&hosted_button_id=QT9AWEFL77B9S",
      "old.paypalSwarmsimDotComUrl": "https://www.paypal.com/cgi-bin/webscr?cmd=_s-xclick&hosted_button_id=YVHVAE2UW2H86",
      "old.paypalSandboxUrl": "https://www.sandbox.paypal.com/cgi-bin/webscr?cmd=_s-xclick&hosted_button_id=2G5NLN7SE4L5U",
      "old.paypalLegacyGithubUrl": "https://www.paypal.com/cgi-bin/webscr?cmd=_s-xclick&hosted_button_id=RYA3WRJJRK6LC"
    }
  ],
  "onBuy.addUnits": [
    {
      "parent": "nexus1",
      "child": "energy",
      "val": 2000
    },
    {
      "parent": "nexus2",
      "child": "energy",
      "val": 4000
    },
    {
      "parent": "nexus3",
      "child": "energy",
      "val": 6000
    },
    {
      "parent": "nexus4",
      "child": "energy",
      "val": 8000
    },
    {
      "parent": "nexus5",
      "child": "energy",
      "val": 10000
    },
    {
      "parent": "larvarush",
      "child": "larva",
      "val": "(base: (flat: 100000) + (v: 2400 * larva_velocity)) * (mutation: (log(10 + mutantrush, 10) - 1) * 3 + 1) * (bat: 1 + (bat_max: 0.6) * (1 - 1/(1 + 0.001 * bat))) * (batmutation: (log(10 + 0.1 * mutantbat, 10) - 1) * 1 + 1)"
    },
    {
      "parent": "meatrush",
      "child": "meat",
      "val": "(base: (flat: 100000000000) + (v: 7200 * meat_velocity)) * (mutation: (log(10 + mutantrush, 10) - 1) * 13 + 1) * (bat: 1 + (bat_max: 0.6) * (1 - 1/(1 + 0.001 * bat))) * (batmutation: (log(10 + 0.1 * mutantbat, 10) - 1) * 1 + 1)"
    },
    {
      "parent": "territoryrush",
      "child": "territory",
      "val": "(base: (flat: 10000000000) + (v: 7200 * territory_velocity)) * (mutation: (log(10 + mutantrush, 10) - 1) * 13 + 1) * (bat: 1 + (bat_max: 0.6) * (1 - 1/(1 + 0.001 * bat))) * (batmutation: (log(10 + 0.1 * mutantbat, 10) - 1) * 1 + 1)"
    },
    {
      "parent": "clonelarvae",
      "child": "larva",
      "val": "min((base: larva + cocoon), (cap: 100000 * larva_velocity * (mutation: (log(10 + mutantclone, 10) - 1) * 1.8 + 1) * (bat: 1 + (bat_max: 0.6) * (1 - 1/(1 + 0.001 * bat))) * (batmutation: (log(10 + 0.1 * mutantbat, 10) - 1) * 1 + 1)))"
    },
    {
      "parent": "swarmwarp",
      "child": "energy",
      "val": "energy_velocity * -900 * (mutation: (log(10 + mutantswarmwarp, 10) - 1) * 2 + 1) * (bat: 1 + (bat_max: 0.6) * (1 - 1/(1 + 0.001 * bat))) * (batmutation: (log(10 + 0.1 * mutantbat, 10) - 1) * 1 + 1)"
    },
    {
      "parent": "ascension",
      "child": "mutagen",
      "val": "premutagen"
    },
    {
      "parent": "hatchery",
      "child": "crystal",
      "val": 500,
      "cooldown.sec": 1800,
      "cooldown.group": "crystal"
    },
    {
      "parent": "expansion",
      "child": "crystal",
      "val": 500,
      "cooldown.sec": 1800,
      "cooldown.group": "crystal"
    },
    {
      "parent": "energy",
      "child": "mtxEnergy",
      "val": 1
    }
  ],
  "onBuy.mulUnits": [
    {
      "parent": "swarmlingempower",
      "child": "swarmling",
      "count": 0
    },
    {
      "parent": "stingerempower",
      "child": "stinger",
      "count": 0
    },
    {
      "parent": "spiderempower",
      "child": "spider",
      "count": 0
    },
    {
      "parent": "mosquitoempower",
      "child": "mosquito",
      "count": 0
    },
    {
      "parent": "locustempower",
      "child": "locust",
      "count": 0
    },
    {
      "parent": "roachempower",
      "child": "roach",
      "count": 0
    },
    {
      "parent": "giantspiderempower",
      "child": "giantspider",
      "count": 0
    },
    {
      "parent": "centipedeempower",
      "child": "centipede",
      "count": 0
    },
    {
      "parent": "waspempower",
      "child": "wasp",
      "count": 0
    },
    {
      "parent": "devourerempower",
      "child": "devourer",
      "count": 0
    },
    {
      "parent": "goonempower",
      "child": "goon",
      "count": 0
    },
    {
      "parent": "clonearmy",
      "child": "swarmling",
      "count": 2
    },
    {
      "parent": "clonearmy",
      "child": "stinger",
      "count": 2
    },
    {
      "parent": "clonearmy",
      "child": "spider",
      "count": 2
    },
    {
      "parent": "clonearmy",
      "child": "mosquito",
      "count": 2
    },
    {
      "parent": "clonearmy",
      "child": "locust",
      "count": 2
    },
    {
      "parent": "clonearmy",
      "child": "roach",
      "count": 2
    },
    {
      "parent": "clonearmy",
      "child": "giantspider",
      "count": 2
    },
    {
      "parent": "clonearmy",
      "child": "centipede",
      "count": 2
    },
    {
      "parent": "clonearmy",
      "child": "wasp",
      "count": 2
    },
    {
      "parent": "clonearmy",
      "child": "devourer",
      "count": 2
    },
    {
      "parent": "clonearmy",
      "child": "goon",
      "count": 2
    },
    {
      "parent": "ascension",
      "child": "premutagen",
      "count": 0
    }
  ],
  "onBuy.addTime": [
    {
      "parent": "swarmwarp",
      "secs": "900 * (mutation: (log(10 + mutantswarmwarp, 10) - 1) * 2 + 1) * (bat: 1 + (bat_max: 0.6) * (1 - 1/(1 + 0.001 * bat))) * (batmutation: (log(10 + 0.1 * mutantbat, 10) - 1) * 1 + 1)"
    }
  ],
  "onBuy.addRandomUnits": [
    {
      "parent": "hatchery",
      "child": "premutagen",
      "minimum": 40,
      "chance": "0.2 + (mutation: 0.8 * (1 - 1/(1 + 0.001 * mutantfreq)))",
      "count": "(mutation: (log(10 + 0.1 * mutanteach, 10) - 1) * 0.5 + 1) * 1.2544 ^ hatchery"
    },
    {
      "parent": "expansion",
      "child": "premutagen",
      "minimum": 80,
      "chance": "0.2 + (mutation: 0.8 * (1 - 1/(1 + 0.001 * mutantfreq)))",
      "count": "(mutation: (log(10 + 0.1 * mutanteach, 10) - 1) * 0.5 + 1) * 1.12 ^ expansion"
    }
  ],
  "onBuy.ascend": [
    {
      "parent": "ascension"
    }
  ],
  "onBuy.respec": [
    {
      "parent": "mutagenrespec",
      "currency": "mutagen",
      "rate": 0.7,
      "resetItems": "mutanthatchery,mutantbat,mutantclone,mutantswarmwarp,mutantrush,mutanteach,mutantfreq,mutantnexus,mutantarmy,mutantmeat,mutatehatchery,mutatebat,mutateclone,mutateswarmwarp,mutaterush,mutateeach,mutatefreq,mutatenexus,mutatearmy,mutatemeat"
    }
  ]
}